…
* At the low end, one group removed 50 balls from the bowl with proportion between 0.20 and 0.25.
* At the high end, another group removed 50 balls from the bowl with proportion between 0.45 and 0.5 red.
* However the most frequently occurring proportions were between 0.30 and 0.35 red, right in the middle of the distribution.
* The shape of this distribution is somewhat bell-shaped. 

Let's construct this same hand-drawn histogram in R using your data visualization skills that you honed. We saved our 33 groups of friends' results in a data frame `tactile_prop_red` included in the `moderndive` package. Run the following to display the first 10 of 33 rows:


```r
tactile_prop_red
```

```
## # A tibble: 33 x 4
##    group            replicate red_balls prop_red
##    <chr>                <int>     <int>    <dbl>
##  1 Ilyas, Yohan             1        21     0.42
##  2 Morgan, Terrance         2        17     0.34
##  3 Martin, Thomas           3        21     0.42
##  4 Clark, Frank             4        21     0.42
##  5 Riddhi, Karina           5        18     0.36
##  6 Andrew, Tyler            6        19     0.38
##  7 Julia                    7        19     0.38
##  8 Rachel, Lauren           8        11     0.22
##  9 Daniel, Caroline         9        15     0.3 
## 10 Josh, Maeve             10        17     0.34
## # ... with 23 more rows
```
…
In the previous Section \@ref(sampling-activity), we performed a *tactile* sampling activity by hand. In other words, we used a physical bowl of balls and a physical shovel. We performed this sampling activity by hand first so that we develop a firm understanding of the root ideas behind sampling. In this section, we'll mimic this tactile sampling activity with a *virtual* sampling activity using a computer. In other words, we'll use a virtual analog to the bowl of balls and a virtual analog to the shovel. 


### Using the virtual shovel once

Let's start by performing the virtual analog of the tactile sampling exercise we performed in Section \@ref(sampling-activity). We first need a virtual analog of the bowl seen in Figure \@ref(fig:sampling-exercise-1). To this end, we included a data frame `bowl` in the `moderndive` package. The rows of `bowl` correspond exactly with the contents of the actual bowl. 


```r
bowl
```

```
## # A tibble: 2,400 x 2
##    ball_ID color
##      <int> <chr>
##  1       1 white
##  2       2 white
##  3       3 white
##  4       4 red  
##  5       5 white
##  6       6 white
##  7       7 red  
##  8       8 white
##  9       9 red  
## 10      10 white
## # ... with 2,390 more rows
```

Observe that `bowl` has 2400 rows, telling us that the bowl contains 2400 equally-sized balls. The first variable `ball_ID` is used as an *identification variable*; none of the balls in the actual bowl are marked with numbers. The second variable `color` indicates whether a particular virtual ball is red or white. View the contents of the bowl in RStudio's data viewer and scroll through the contents to convince yourself that `bowl` is indeed a virtual analog of the actual bowl in Figure \@ref(fig:sampling-exercise-1).

Now that we have a virtual analog of our bowl, we now need a virtual analog to the shovel seen in Figure \@ref(fig:sampling-exercise-2) to generate virtual samples of 50 balls. We're going to use the `rep_sample_n()` function included in the `moderndive` package. This function allows us to take `rep`eated, or `rep`licated, `samples` of size `n`. 


```r
virtual_shovel <- bowl %>% 
  rep_sample_n(size = 50)
virtual_shovel
```

```
## # A tibble: 50 x 3
## # Groups:   replicate [1]
##    replicate ball_ID color
##        <int>   <int> <chr>
##  1         1    1416 red  
##  2         1    1895 white
##  3         1    1414 white
##  4         1    1666 red  
##  5         1     285 red  
##  6         1    2079 red  
##  7         1    2370 white
##  8         1    1105 white
##  9         1     110 white
## 10         1     731 white
## # ... with 40 more rows
```

Observe that `virtual_shovel` has 50 rows corresponding to our virtual sample of size 50. The `ball_ID` variable identifies which of the 2400 balls from `bowl` are included in our sample of 50 balls while `color` denotes its color. However what does the `replicate` variable indicate? In `virtual_shovel`'s case, `replicate` is equal to 1 for all 50 rows. This is telling us that these 50 rows correspond to the first repeated/replicated use of the shovel, in our case our first sample. We'll see in what follows when we "virtually" take 33 samples, `replicate` will take values between 1 and 33. 

Let's compute the proportion of balls in our virtual sample that are red. First, for each of our 50 sampled balls, let's identify if it is red or not using a test for equality using `==`. Let's create a new Boolean variable `is_red` using the `mutate()` function:


```r
virtual_shovel %>% 
  mutate(is_red = (color == "red"))
```

```
## # A tibble: 50 x 4
## # Groups:   replicate [1]
##    replicate ball_ID color is_red
##        <int>   <int> <chr> <lgl> 
##  1         1    1416 red   TRUE  
##  2         1    1895 white FALSE 
##  3         1    1414 white FALSE 
##  4         1    1666 red   TRUE  
##  5         1     285 red   TRUE  
##  6         1    2079 red   TRUE  
##  7         1    2370 white FALSE 
##  8         1    1105 white FALSE 
##  9         1     110 white FALSE 
## 10         1     731 white FALSE 
## # ... with 40 more rows
```
…
### Using the virtual shovel 33 times

Recall that in our tactile sampling exercise in Section \@ref(sampling-activity) we had 33 groups of students each use the shovel, yielding 33 samples of size 50 balls. We then used these 33 samples to compute 33 proportions. In other words we repeated/replicated using the shovel 33 times. We can perform this repeated/replicated sampling virtually by once again using our virtual shovel function `rep_sample_n()`, but by adding the `reps = 33` argument. This is telling R that we want to repeat the sampling 33 times. 

We'll save these results in a data frame called `virtual_samples`. While we provide a preview of the first 10 rows of `virtual_samples` in what follows, we highly suggest you scroll through its contents using RStudio's spreadsheet viewer by running `View(virtual_samples)`. 


```r
virtual_samples <- bowl %>% 
  rep_sample_n(size = 50, reps = 33)
virtual_samples
```

```
## # A tibble: 1,650 x 3
## # Groups:   replicate [33]
##    replicate ball_ID color
##        <int>   <int> <chr>
##  1         1      37 white
##  2         1    2395 red  
##  3         1     476 red  
##  4         1    1732 white
##  5         1     995 white
##  6         1     375 white
##  7         1     208 red  
##  8         1    1985 white
##  9         1       9 red  
## 10         1    1533 red  
## # ... with 1,640 more rows
```
…
```
## `summarise()` ungrouping output (override with `.groups` argument)
```

```r
virtual_prop_red
```

```
## # A tibble: 33 x 3
##    replicate   red prop_red
##        <int> <int>    <dbl>
##  1         1    22     0.44
##  2         2    19     0.38
##  3         3    17     0.34
##  4         4    17     0.34
##  5         5    15     0.3 
##  6         6    21     0.42
##  7         7    20     0.4 
##  8         8    22     0.44
##  9         9    22     0.44
## 10        10    18     0.36
## # ... with 23 more rows
```
…
### Using the virtual shovel 1000 times {#shovel-1000-times}

Now say we want to study the effects of sampling variation not for 33 samples, but rather for a very large number of samples, say 1000. We have two choices at this point. We could have our groups of friends manually take 1000 samples of 50 balls and compute the corresponding 1000 proportions. However, this would be a very tedious and time-consuming task. This is where computers excel: automating long and repetitive tasks while performing them very quickly. Thus at this point we will abandon tactile sampling in favor of only virtual sampling. Let's once again use the `rep_sample_n()` function with sample `size` set to be 50 once again, but this time with the number of replicates `reps = 1000`. Be sure to scroll through the contents of `virtual_samples` in RStudio's viewer. 


```r
virtual_samples <- bowl %>% 
  rep_sample_n(size = 50, reps = 1000)
virtual_samples
```

```
## # A tibble: 50,000 x 3
## # Groups:   replicate [1,000]
##    replicate ball_ID color
##        <int>   <int> <chr>
##  1         1     583 white
##  2         1     260 white
##  3         1    1947 red  
##  4         1      19 white
##  5         1     393 white
##  6         1     282 white
##  7         1     438 white
##  8         1     622 red  
##  9         1     751 red  
## 10         1     354 red  
## # ... with 49,990 more rows
```
…
```
## `summarise()` ungrouping output (override with `.groups` argument)
```

```r
virtual_prop_red
```

```
## # A tibble: 1,000 x 3
##    replicate   red prop_red
##        <int> <int>    <dbl>
##  1         1    14     0.28
##  2         2    21     0.42
##  3         3    20     0.4 
##  4         4    13     0.26
##  5         5    18     0.36
##  6         6    15     0.3 
##  7         7    17     0.34
##  8         8    14     0.28
##  9         9    18     0.36
## 10        10    13     0.26
## # ... with 990 more rows
```
…
An image of these 50 pennies can be seen in Figure \@ref(fig:resampling-exercise-c). For each the 50 pennies starting in the top left, progressing row-by-row, and ending in the bottom right, we assigned an "ID" identification variable and marked the year of minting.

\begin{figure}
\includegraphics[width=1\linewidth]{images/sampling/pennies/deliverable/3} \caption{50 US pennies labelled.}(\#fig:resampling-exercise-c)
\end{figure}

The `moderndive` \index{moderndive!pennies\_sample} package contains this data on our 50 sampled pennies in the `pennies_sample` data frame:


```r
pennies_sample
```

```
## # A tibble: 50 x 2
##       ID  year
##    <int> <dbl>
##  1     1  2002
##  2     2  1986
##  3     3  2017
##  4     4  1988
##  5     5  2008
##  6     6  1983
##  7     7  2008
##  8     8  1996
##  9     9  2004
## 10    10  2000
## # ... with 40 more rows
```
…
\begin{figure}
\includegraphics[width=0.7\linewidth]{images/sampling/pennies/tactile_simulation/5_shared_spreadsheet} \caption{Snapshot of shared spreadsheet of resampled pennies.}(\#fig:tactile-resampling-5)
\end{figure}

For your convenience, we've taken these 35 $\times$ 50 = 1750 values and saved them in `pennies_resamples`, a "tidy" data frame included in the `moderndive` package. We saw what it means for a data frame to be "tidy".


```r
pennies_resamples
```

```
## # A tibble: 1,750 x 3
## # Groups:   name [35]
##    replicate name     year
##        <int> <chr>   <dbl>
##  1         1 Arianna  1988
##  2         1 Arianna  2002
##  3         1 Arianna  2015
##  4         1 Arianna  1998
##  5         1 Arianna  1979
##  6         1 Arianna  1971
##  7         1 Arianna  1971
##  8         1 Arianna  2015
##  9         1 Arianna  1988
## 10         1 Arianna  1979
## # ... with 1,740 more rows
```
…
```
## `summarise()` ungrouping output (override with `.groups` argument)
```

```r
resampled_means
```

```
## # A tibble: 35 x 2
##    name      mean_year
##    <chr>         <dbl>
##  1 Arianna       1992.
##  2 Artemis       1996.
##  3 Bea           1996.
##  4 Camryn        1997.
##  5 Cassandra     1991.
##  6 Cindy         1995.
##  7 Claire        1996.
##  8 Dahlia        1998.
##  9 Dan           1994.
## 10 Eindra        1994.
## # ... with 25 more rows
```
…
Observe how we explicitly set the `replace` argument to `TRUE` in order to tell `rep_sample_n()` that we would like to sample pennies \index{sampling!with replacement} *with* replacement. Had we not set `replace = TRUE`, the function would've assumed the default value of `FALSE` and hence done resampling *without* replacement. Additionally, since we didn't specify the number of replicates via the `reps` argument, the function assumes the default of one replicate `reps = 1`. Lastly, observe also that the `size` argument is set to match the original sample size of 50 pennies. 

Let's look at only the first 10 out of 50 rows of `virtual_resample`:


```r
virtual_resample
```

```
## # A tibble: 50 x 3
## # Groups:   replicate [1]
##    replicate    ID  year
##        <int> <int> <dbl>
##  1         1    12  1995
##  2         1    19  1983
##  3         1    10  2000
##  4         1     1  2002
##  5         1    24  2017
##  6         1    28  2006
##  7         1    27  1993
##  8         1    50  2017
##  9         1    46  2017
## 10         1    38  1999
## # ... with 40 more rows
```
…
As we saw when we did our tactile resampling exercise, the resulting mean year is different than the mean year of our 50 originally sampled pennies of 1995.44.

### Virtually resampling 35 times {#bootstrap-35-replicates}

Let's now perform the virtual analog of our 35 friends' resampling. Using these results, we'll be able to study the variability in the sample means from 35 resamples of size 50. Let's first add a `reps = 35` argument to `rep_sample_n()` \index{infer!rep\_sample\_n()} to indicate we would like 35 replicates. Thus, we want to repeat the resampling with the replacement of 50 pennies 35 times.


```r
virtual_resamples <- pennies_sample %>% 
  rep_sample_n(size = 50, replace = TRUE, reps = 35)
virtual_resamples
```

```
## # A tibble: 1,750 x 3
## # Groups:   replicate [35]
##    replicate    ID  year
##        <int> <int> <dbl>
##  1         1    13  2015
##  2         1    24  2017
##  3         1    11  1994
##  4         1    10  2000
##  5         1     8  1996
##  6         1    41  1992
##  7         1    22  1976
##  8         1    45  1997
##  9         1    48  1988
## 10         1    15  1974
## # ... with 1,740 more rows
```
…
```
## `summarise()` ungrouping output (override with `.groups` argument)
```

```r
virtual_resampled_means
```

```
## # A tibble: 35 x 2
##    replicate mean_year
##        <int>     <dbl>
##  1         1     1996.
##  2         2     1996.
##  3         3     1995 
##  4         4     1995.
##  5         5     1997.
##  6         6     1993.
##  7         7     1997.
##  8         8     1996.
##  9         9     1995.
## 10        10     1995.
## # ... with 25 more rows
```
…
```
## `summarise()` ungrouping output (override with `.groups` argument)
```

```r
virtual_resampled_means
```

```
## # A tibble: 1,000 x 2
##    replicate mean_year
##        <int>     <dbl>
##  1         1     1997.
##  2         2     1992.
##  3         3     1995.
##  4         4     1995.
##  5         5     1996.
##  6         6     1994.
##  7         7     1997.
##  8         8     1997.
##  9         9     1998.
## 10        10     1996.
## # ... with 990 more rows
```
…
\caption{Diagram of specify() variables.}(\#fig:infer-specify)
\end{figure}

The `specify()` \index{infer!specify()} function is used to choose which variables in a data frame will be the focus of our statistical inference. We do this by specifying the `response` argument. For example, in our `pennies_sample` data frame of the 50 pennies sampled from the bank, the variable of interest is `year`:


```r
pennies_sample %>% 
  specify(response = year)
```

```
## Response: year (numeric)
## # A tibble: 50 x 1
##     year
##    <dbl>
##  1  2002
##  2  1986
##  3  2017
##  4  1988
##  5  2008
##  6  1983
##  7  2008
##  8  1996
##  9  2004
## 10  2000
## # ... with 40 more rows
```
…
After we `specify()` the variables of interest, we pipe the results into the `generate()` function to generate replicates. In other words, repeat the resampling process a large number of times. Recall in Sections \@ref(bootstrap-35-replicates) and \@ref(bootstrap-1000-replicates) we did this 35 and 1000 times.

The `generate()` \index{infer!generate()} function's first argument is `reps`, which sets the number of replicates we would like to generate. Since we want to resample the 50 pennies in `pennies_sample` with replacement 1000 times, we set `reps = 1000`. The second argument `type` determines the type of computer simulation we'd like to perform. We set this to `type = "bootstrap"` indicating that we want to perform bootstrap resampling. You'll see different options for `type` in Chapter \@ref(hypothesis-testing). 


```r
pennies_sample %>% 
  specify(response = year) %>% 
  generate(reps = 1000, type = "bootstrap")
```


```
## Response: year (numeric)
## # A tibble: 50,000 x 2
## # Groups:   replicate [1,000]
##    replicate  year
##        <int> <dbl>
##  1         1  1978
##  2         1  1997
##  3         1  2004
##  4         1  1983
##  5         1  2004
##  6         1  1988
##  7         1  1999
##  8         1  2017
##  9         1  2015
## 10         1  2018
## # ... with 49,990 more rows
```
…
Let's save the result in a data frame called `bootstrap_distribution` and explore it's contents:


```r
bootstrap_distribution <- pennies_sample %>% 
  specify(response = year) %>% 
  generate(reps = 1000) %>% 
  calculate(stat = "mean")
bootstrap_distribution
```


```
## # A tibble: 1,000 x 2
##    replicate  stat
##        <int> <dbl>
##  1         1 1997.
##  2         2 1993.
##  3         3 1997.
##  4         4 1996.
##  5         5 1997.
##  6         6 1991.
##  7         7 1995.
##  8         8 1997.
##  9         9 1992.
## 10        10 1997.
## # ... with 990 more rows
```
…
Let's now construct confidence intervals for $p$ using our 33 groups of friends' samples from the bowl in Chapter \@ref(sampling). We'll then see if the confidence intervals "captured" the true value of $p$, which we know to be 37.5%. In other words: "Did net capture the fish?"


### Did the net capture the fish? {#ilyas-yohan}

Recall that we had 33 groups of friends each take samples of size 50 from the bowl and then compute the sample proportion of red $\widehat{p}$. This resulted in 33 such estimates of $p$. Let's focus on Ilyas and Yohan's sample, which is saved in the `bowl_sample_1` data frame in the `moderndive` package:


```r
bowl_sample_1
```

```
## # A tibble: 50 x 1
##    color
##    <chr>
##  1 white
##  2 white
##  3 red  
##  4 red  
##  5 white
##  6 white
##  7 red  
##  8 white
##  9 white
## 10 white
## # ... with 40 more rows
```
…
Whoops! We need to define which event is of interest! `red` or `white` balls? Since we are interested in the proportion red, let's set `success` to be `"red"`:


```r
bowl_sample_1 %>% 
  specify(response = color, success = "red")
```

```
## Response: color (factor)
## # A tibble: 50 x 1
##    color
##    <fct>
##  1 white
##  2 white
##  3 red  
##  4 red  
##  5 white
##  6 white
##  7 red  
##  8 white
##  9 white
## 10 white
## # ... with 40 more rows
```

#### 2. `generate` replicates {-}

Second, we `generate()` 1000 replicates of *bootstrap resampling with replacement* from `bowl_sample_1` by setting `reps = 1000` and `type = "bootstrap"`. 


```r
bowl_sample_1 %>% 
  specify(response = color, success = "red") %>% 
  generate(reps = 1000, type = "bootstrap")
```

```
## Response: color (factor)
## # A tibble: 50,000 x 2
## # Groups:   replicate [1,000]
##    replicate color
##        <int> <fct>
##  1         1 white
##  2         1 white
##  3         1 red  
##  4         1 white
##  5         1 red  
##  6         1 red  
##  7         1 red  
##  8         1 red  
##  9         1 red  
## 10         1 white
## # ... with 49,990 more rows
```
…
