…
An image of these 50 pennies can be seen in Figure \@ref(fig:resampling-exercise-c). For each the 50 pennies starting in the top left, progressing row-by-row, and ending in the bottom right, we assigned an "ID" identification variable and marked the year of minting.

\begin{figure}
\includegraphics[width=1\linewidth]{images/sampling/pennies/deliverable/3} \caption{50 US pennies labelled.}(\#fig:resampling-exercise-c)
\end{figure}

The `moderndive` \index{moderndive!pennies\_sample} package contains this data on our 50 sampled pennies in the `pennies_sample` data frame:


```r
pennies_sample
```

```
## # A tibble: 50 x 2
##       ID  year
##    <int> <dbl>
##  1     1  2002
##  2     2  1986
##  3     3  2017
##  4     4  1988
##  5     5  2008
##  6     6  1983
##  7     7  2008
##  8     8  1996
##  9     9  2004
## 10    10  2000
## # ... with 40 more rows
```
…
\begin{figure}
\includegraphics[width=0.7\linewidth]{images/sampling/pennies/tactile_simulation/5_shared_spreadsheet} \caption{Snapshot of shared spreadsheet of resampled pennies.}(\#fig:tactile-resampling-5)
\end{figure}

For your convenience, we've taken these 35 $\times$ 50 = 1750 values and saved them in `pennies_resamples`, a "tidy" data frame included in the `moderndive` package. We saw what it means for a data frame to be "tidy".


```r
pennies_resamples
```

```
## # A tibble: 1,750 x 3
## # Groups:   name [35]
##    replicate name     year
##        <int> <chr>   <dbl>
##  1         1 Arianna  1988
##  2         1 Arianna  2002
##  3         1 Arianna  2015
##  4         1 Arianna  1998
##  5         1 Arianna  1979
##  6         1 Arianna  1971
##  7         1 Arianna  1971
##  8         1 Arianna  2015
##  9         1 Arianna  1988
## 10         1 Arianna  1979
## # ... with 1,740 more rows
```
…
```
## `summarise()` ungrouping output (override with `.groups` argument)
```

```r
resampled_means
```

```
## # A tibble: 35 x 2
##    name      mean_year
##    <chr>         <dbl>
##  1 Arianna       1992.
##  2 Artemis       1996.
##  3 Bea           1996.
##  4 Camryn        1997.
##  5 Cassandra     1991.
##  6 Cindy         1995.
##  7 Claire        1996.
##  8 Dahlia        1998.
##  9 Dan           1994.
## 10 Eindra        1994.
## # ... with 25 more rows
```
…
Observe how we explicitly set the `replace` argument to `TRUE` in order to tell `rep_sample_n()` that we would like to sample pennies \index{sampling!with replacement} *with* replacement. Had we not set `replace = TRUE`, the function would've assumed the default value of `FALSE` and hence done resampling *without* replacement. Additionally, since we didn't specify the number of replicates via the `reps` argument, the function assumes the default of one replicate `reps = 1`. Lastly, observe also that the `size` argument is set to match the original sample size of 50 pennies. 

Let's look at only the first 10 out of 50 rows of `virtual_resample`:


```r
virtual_resample
```

```
## # A tibble: 50 x 3
## # Groups:   replicate [1]
##    replicate    ID  year
##        <int> <int> <dbl>
##  1         1    12  1995
##  2         1    19  1983
##  3         1    10  2000
##  4         1     1  2002
##  5         1    24  2017
##  6         1    28  2006
##  7         1    27  1993
##  8         1    50  2017
##  9         1    46  2017
## 10         1    38  1999
## # ... with 40 more rows
```
…
As we saw when we did our tactile resampling exercise, the resulting mean year is different than the mean year of our 50 originally sampled pennies of 1995.44.

### Virtually resampling 35 times {#bootstrap-35-replicates}

Let's now perform the virtual analog of our 35 friends' resampling. Using these results, we'll be able to study the variability in the sample means from 35 resamples of size 50. Let's first add a `reps = 35` argument to `rep_sample_n()` \index{infer!rep\_sample\_n()} to indicate we would like 35 replicates. Thus, we want to repeat the resampling with the replacement of 50 pennies 35 times.


```r
virtual_resamples <- pennies_sample %>% 
  rep_sample_n(size = 50, replace = TRUE, reps = 35)
virtual_resamples
```

```
## # A tibble: 1,750 x 3
## # Groups:   replicate [35]
##    replicate    ID  year
##        <int> <int> <dbl>
##  1         1    13  2015
##  2         1    24  2017
##  3         1    11  1994
##  4         1    10  2000
##  5         1     8  1996
##  6         1    41  1992
##  7         1    22  1976
##  8         1    45  1997
##  9         1    48  1988
## 10         1    15  1974
## # ... with 1,740 more rows
```
…
```
## `summarise()` ungrouping output (override with `.groups` argument)
```

```r
virtual_resampled_means
```

```
## # A tibble: 35 x 2
##    replicate mean_year
##        <int>     <dbl>
##  1         1     1996.
##  2         2     1996.
##  3         3     1995 
##  4         4     1995.
##  5         5     1997.
##  6         6     1993.
##  7         7     1997.
##  8         8     1996.
##  9         9     1995.
## 10        10     1995.
## # ... with 25 more rows
```
…
```
## `summarise()` ungrouping output (override with `.groups` argument)
```

```r
virtual_resampled_means
```

```
## # A tibble: 1,000 x 2
##    replicate mean_year
##        <int>     <dbl>
##  1         1     1997.
##  2         2     1992.
##  3         3     1995.
##  4         4     1995.
##  5         5     1996.
##  6         6     1994.
##  7         7     1997.
##  8         8     1997.
##  9         9     1998.
## 10        10     1996.
## # ... with 990 more rows
```
…
\caption{Diagram of specify() variables.}(\#fig:infer-specify)
\end{figure}

The `specify()` \index{infer!specify()} function is used to choose which variables in a data frame will be the focus of our statistical inference. We do this by specifying the `response` argument. For example, in our `pennies_sample` data frame of the 50 pennies sampled from the bank, the variable of interest is `year`:


```r
pennies_sample %>% 
  specify(response = year)
```

```
## Response: year (numeric)
## # A tibble: 50 x 1
##     year
##    <dbl>
##  1  2002
##  2  1986
##  3  2017
##  4  1988
##  5  2008
##  6  1983
##  7  2008
##  8  1996
##  9  2004
## 10  2000
## # ... with 40 more rows
```
…
After we `specify()` the variables of interest, we pipe the results into the `generate()` function to generate replicates. In other words, repeat the resampling process a large number of times. Recall in Sections \@ref(bootstrap-35-replicates) and \@ref(bootstrap-1000-replicates) we did this 35 and 1000 times.

The `generate()` \index{infer!generate()} function's first argument is `reps`, which sets the number of replicates we would like to generate. Since we want to resample the 50 pennies in `pennies_sample` with replacement 1000 times, we set `reps = 1000`. The second argument `type` determines the type of computer simulation we'd like to perform. We set this to `type = "bootstrap"` indicating that we want to perform bootstrap resampling. You'll see different options for `type` in Chapter \@ref(hypothesis-testing). 


```r
pennies_sample %>% 
  specify(response = year) %>% 
  generate(reps = 1000, type = "bootstrap")
```


```
## Response: year (numeric)
## # A tibble: 50,000 x 2
## # Groups:   replicate [1,000]
##    replicate  year
##        <int> <dbl>
##  1         1  1978
##  2         1  1997
##  3         1  2004
##  4         1  1983
##  5         1  2004
##  6         1  1988
##  7         1  1999
##  8         1  2017
##  9         1  2015
## 10         1  2018
## # ... with 49,990 more rows
```
…
Let's save the result in a data frame called `bootstrap_distribution` and explore it's contents:


```r
bootstrap_distribution <- pennies_sample %>% 
  specify(response = year) %>% 
  generate(reps = 1000) %>% 
  calculate(stat = "mean")
bootstrap_distribution
```


```
## # A tibble: 1,000 x 2
##    replicate  stat
##        <int> <dbl>
##  1         1 1997.
##  2         2 1993.
##  3         3 1997.
##  4         4 1996.
##  5         5 1997.
##  6         6 1991.
##  7         7 1995.
##  8         8 1997.
##  9         9 1992.
## 10        10 1997.
## # ... with 990 more rows
```
…
Let's now construct confidence intervals for $p$ using our 33 groups of friends' samples from the bowl in Chapter \@ref(sampling). We'll then see if the confidence intervals "captured" the true value of $p$, which we know to be 37.5%. In other words: "Did net capture the fish?"


### Did the net capture the fish? {#ilyas-yohan}

Recall that we had 33 groups of friends each take samples of size 50 from the bowl and then compute the sample proportion of red $\widehat{p}$. This resulted in 33 such estimates of $p$. Let's focus on Ilyas and Yohan's sample, which is saved in the `bowl_sample_1` data frame in the `moderndive` package:


```r
bowl_sample_1
```

```
## # A tibble: 50 x 1
##    color
##    <chr>
##  1 white
##  2 white
##  3 red  
##  4 red  
##  5 white
##  6 white
##  7 red  
##  8 white
##  9 white
## 10 white
## # ... with 40 more rows
```
…
Whoops! We need to define which event is of interest! `red` or `white` balls? Since we are interested in the proportion red, let's set `success` to be `"red"`:


```r
bowl_sample_1 %>% 
  specify(response = color, success = "red")
```

```
## Response: color (factor)
## # A tibble: 50 x 1
##    color
##    <fct>
##  1 white
##  2 white
##  3 red  
##  4 red  
##  5 white
##  6 white
##  7 red  
##  8 white
##  9 white
## 10 white
## # ... with 40 more rows
```

#### 2. `generate` replicates {-}

Second, we `generate()` 1000 replicates of *bootstrap resampling with replacement* from `bowl_sample_1` by setting `reps = 1000` and `type = "bootstrap"`. 


```r
bowl_sample_1 %>% 
  specify(response = color, success = "red") %>% 
  generate(reps = 1000, type = "bootstrap")
```

```
## Response: color (factor)
## # A tibble: 50,000 x 2
## # Groups:   replicate [1,000]
##    replicate color
##        <int> <fct>
##  1         1 white
##  2         1 white
##  3         1 red  
##  4         1 white
##  5         1 red  
##  6         1 red  
##  7         1 red  
##  8         1 red  
##  9         1 red  
## 10         1 white
## # ... with 49,990 more rows
```
…
Third, we summarize each of 1000 resamples of size 50 with the proportion of "successes". In other words, the proportion of the balls that are `"red"`. We can set the summary statistic to be calculated to be the proportion by setting the `stat` argument to be `"prop"`. Let's save the result in a data frame called `sample_1_bootstrap`:


```r
sample_1_bootstrap <- bowl_sample_1 %>% 
  specify(response = color, success = "red") %>% 
  generate(reps = 1000, type = "bootstrap") %>% 
  calculate(stat = "prop")
sample_1_bootstrap
```


```
## # A tibble: 1,000 x 2
##    replicate  stat
##        <int> <dbl>
##  1         1  0.52
##  2         2  0.5 
##  3         3  0.5 
##  4         4  0.38
##  5         5  0.52
##  6         6  0.44
##  7         7  0.46
##  8         8  0.54
##  9         9  0.4 
## 10        10  0.36
## # ... with 990 more rows
```
…
Did Ilyas and Yohan's net capture the fish? In other words, did their 95% confidence interval for $p$ based on their sample contain the true value of $p$ of 0.375? Yes! 0.375 is between the endpoints of our confidence interval (0.28, 0.5605).

However, will *every* 95% confidence interval for $p$ capture this value? In other words, if we had a different sample of  50 balls and constructed a different confidence interval, would it necessarily contain $p$ = 0.375 as well? Let's see!

Let's first take a different sample from the bowl, this time using the computer as we did in Chapter \@ref(sampling):


```r
bowl_sample_2 <- bowl %>% 
  rep_sample_n(size = 50)
bowl_sample_2
```

```
## # A tibble: 50 x 3
## # Groups:   replicate [1]
##    replicate ball_ID color
##        <int>   <int> <chr>
##  1         1     681 red  
##  2         1    2012 red  
##  3         1    1943 red  
##  4         1     887 white
##  5         1    2266 red  
##  6         1     477 white
##  7         1    2225 white
##  8         1    1132 red  
##  9         1    1216 white
## 10         1    2029 white
## # ... with 40 more rows
```

Let's reapply the same `infer` functions on `bowl_sample_2` to generate a different 95% confidence interval for $p$. First we create the new bootstrap distribution and save the results in `sample_2_bootstrap`:


```r
sample_2_bootstrap <- bowl_sample_2 %>% 
  specify(response = color, success = "red") %>% 
  generate(reps = 1000, type = "bootstrap") %>% 
  calculate(stat = "prop")
sample_2_bootstrap
```


```
## # A tibble: 1,000 x 2
##    replicate  stat
##        <int> <dbl>
##  1         1  0.4 
##  2         2  0.28
##  3         3  0.28
##  4         4  0.24
##  5         5  0.3 
##  6         6  0.24
##  7         7  0.26
##  8         8  0.24
##  9         9  0.36
## 10        10  0.3 
## # ... with 990 more rows
```
…
