…
To begin the study, 48 bank supervisors were asked to assume the role of a hypothetical director of a bank with multiple branches. Every one of the bank supervisors was given a resume and asked whether or not the candidate on the resume was fit to be promoted to a new position in one of their branches. 

However, each of these 48 resumes were identical in all respects except one: the name of the applicant at the top of the resume. 24 of the supervisors were randomly given resumes with stereotypically "male" names while 24 of the supervisors were randomly given resumes with stereotypically "female" names. Since only (binary) gender varied from resume to resume, researchers could isolate the effect of this variable in promotion rates. 

While many people today (including us, the authors) disagree with such binary views of gender, it is important to remember that this study was conducted at a time where more nuanced views of gender were not as prevalent. Despite this imperfection, we decided to still use this example as we feel it presents ideas still relevant today about how we could study discrimination in the workplace.

The `moderndive` package contains the data on the 48 applicants in the `promotions` data frame. Let’s explore this data first:


```r
promotions
```

```
## # A tibble: 48 x 3
##       id decision gender
##    <int> <fct>    <fct> 
##  1     1 promoted male  
##  2     2 promoted male  
##  3     3 promoted male  
##  4     4 promoted male  
##  5     5 promoted male  
##  6     6 promoted male  
##  7     7 promoted male  
##  8     8 promoted male  
##  9     9 promoted male  
## 10    10 promoted male  
## # ... with 38 more rows
```
…
\begin{figure}
\includegraphics[width=0.66\linewidth]{images/shutterstock/shutterstock_128283971} \caption{Shuffling a deck of cards.}(\#fig:shuffling)
\end{figure}


We've saved one such shuffling in the `promotions_shuffled` data frame of the `moderndive` package. If you view both the original `promotions` and the shuffled `promotions_shuffled` data frames and compare them, you'll see that while the `decision` variables are identical, the `gender` variables are different.


```r
promotions_shuffled
```

```
## # A tibble: 48 x 3
##       id decision gender
##    <int> <fct>    <fct> 
##  1     1 promoted female
##  2     2 promoted female
##  3     3 promoted male  
##  4     4 promoted female
##  5     5 promoted male  
##  6     6 promoted male  
##  7     7 promoted male  
##  8     8 promoted female
##  9     9 promoted male  
## 10    10 promoted female
## # ... with 38 more rows
```
…
Recall that we use the `specify()` \index{infer!specify()} verb to specify the response variable and, if needed, any explanatory variables for our study. In this case, since we are interested in any potential effects of gender on promotion decisions, we set `decision` as the response variable and `gender` as the explanatory variable. We do so using a `formula = response ~ explanatory` argument where `response` is the name of the response variable in the data frame and `explanatory` is the name of the explanatory variable. So in our case it is `decision ~ gender`. 

Furthermore, since we are interested in the proportion of resumes `"promoted"`, and not the proportion of resumes `not` promoted, we set the argument `success = "promoted"`.


```r
promotions %>% 
  specify(formula = decision ~ gender, success = "promoted")
```

```
## Response: decision (factor)
## Explanatory: gender (factor)
## # A tibble: 48 x 2
##    decision gender
##    <fct>    <fct> 
##  1 promoted male  
##  2 promoted male  
##  3 promoted male  
##  4 promoted male  
##  5 promoted male  
##  6 promoted male  
##  7 promoted male  
##  8 promoted male  
##  9 promoted male  
## 10 promoted male  
## # ... with 38 more rows
```
…
In our case, since we have two samples (the resumes with "male" and "female" names), we set `null = "independence"`.


```r
promotions %>% 
  specify(formula = decision ~ gender, success = "promoted") %>% 
  hypothesize(null = "independence")
```

```
## Response: decision (factor)
## Explanatory: gender (factor)
## Null Hypothesis: independence
## # A tibble: 48 x 2
##    decision gender
##    <fct>    <fct> 
##  1 promoted male  
##  2 promoted male  
##  3 promoted male  
##  4 promoted male  
##  5 promoted male  
##  6 promoted male  
##  7 promoted male  
##  8 promoted male  
##  9 promoted male  
## 10 promoted male  
## # ... with 38 more rows
```
…
```r
promotions %>% 
  specify(formula = decision ~ gender, success = "promoted") %>% 
  hypothesize(null = "independence") %>% 
  generate(reps = 1000, type = "permute")
```


```
## Response: decision (factor)
## Explanatory: gender (factor)
## Null Hypothesis: independence
## # A tibble: 48,000 x 3
## # Groups:   replicate [1,000]
##    decision gender replicate
##    <fct>    <fct>      <int>
##  1 promoted male           1
##  2 promoted male           1
##  3 not      male           1
##  4 promoted male           1
##  5 not      male           1
##  6 not      male           1
##  7 promoted male           1
##  8 promoted male           1
##  9 promoted male           1
## 10 not      male           1
## # ... with 47,990 more rows
```
…
Let's save the result in a data frame called `null_distribution`:


```r
null_distribution <- promotions %>% 
  specify(formula = decision ~ gender, success = "promoted") %>% 
  hypothesize(null = "independence") %>% 
  generate(reps = 1000, type = "permute") %>% 
  calculate(stat = "diff in props", order = c("male", "female"))
null_distribution
```


```
## # A tibble: 1,000 x 2
##    replicate    stat
##        <int>   <dbl>
##  1         1 -0.125 
##  2         2 -0.0417
##  3         3 -0.0417
##  4         4 -0.0417
##  5         5 -0.0417
##  6         6  0.208 
##  7         7 -0.125 
##  8         8  0.125 
##  9         9 -0.0417
## 10        10  0.208 
## # ... with 990 more rows
```
…
## Case study: Are action or romance movies rated higher? {#ht-case-study}

Let's apply our knowledge of hypothesis testing to answer the question: "Are action or romance movies rated higher on IMDb?" [IMDb](https://www.imdb.com/) is a database on the internet providing information on movie and television show casts, plot summaries, trivia, and ratings. We'll investigate if, on average, action or romance movies get higher ratings on IMDb.

### IMDb ratings data {#imdb-data}

The `movies` dataset in the `ggplot2movies` package contains information on 58,788 movies that have been rated by users of IMDB.com. 


```r
movies
```

```
## # A tibble: 58,788 x 24
##    title  year length budget rating votes    r1    r2    r3    r4    r5    r6
##    <chr> <int>  <int>  <int>  <dbl> <int> <dbl> <dbl> <dbl> <dbl> <dbl> <dbl>
##  1 $      1971    121     NA    6.4   348   4.5   4.5   4.5   4.5  14.5  24.5
##  2 $100~  1939     71     NA    6      20   0    14.5   4.5  24.5  14.5  14.5
##  3 $21 ~  1941      7     NA    8.2     5   0     0     0     0     0    24.5
##  4 $40,~  1996     70     NA    8.2     6  14.5   0     0     0     0     0  
##  5 $50,~  1975     71     NA    3.4    17  24.5   4.5   0    14.5  14.5   4.5
##  6 $pent  2000     91     NA    4.3    45   4.5   4.5   4.5  14.5  14.5  14.5
##  7 $win~  2002     93     NA    5.3   200   4.5   0     4.5   4.5  24.5  24.5
##  8 '15'   2002     25     NA    6.7    24   4.5   4.5   4.5   4.5   4.5  14.5
##  9 '38    1987     97     NA    6.6    18   4.5   4.5   4.5   0     0     0  
## 10 '49-~  1917     61     NA    6      51   4.5   0     4.5   4.5   4.5  44.5
## # ... with 58,778 more rows, and 12 more variables: r7 <dbl>, r8 <dbl>,
## #   r9 <dbl>, r10 <dbl>, mpaa <chr>, Action <int>, Animation <int>,
## #   Comedy <int>, Drama <int>, Documentary <int>, Romance <int>, Short <int>
```

We'll focus on a random sample of 68 movies that are classified as either "action" or "romance" movies but not both. We disregard movies that are classified as both so that we can assign all 68 movies into either category. Furthermore, since the original `movies` dataset was a little messy, we provide a pre-wrangled version of our data in the `movies_sample` data frame included in the `moderndive` package. If you're curious, you can look at the necessary data wrangling code to do this on [GitHub](https://github.com/moderndive/moderndive/blob/master/data-raw/process_data_sets.R#L14).


```r
movies_sample
```

```
## # A tibble: 68 x 4
##    title                     year rating genre  
##    <chr>                    <int>  <dbl> <chr>  
##  1 Underworld                1985    3.1 Action 
##  2 Love Affair               1932    6.3 Romance
##  3 Junglee                   1961    6.8 Romance
##  4 Eversmile, New Jersey     1989    5   Romance
##  5 Search and Destroy        1979    4   Action 
##  6 Secreto de Romelia, El    1988    4.9 Romance
##  7 Amants du Pont-Neuf, Les  1991    7.4 Romance
##  8 Illicit Dreams            1995    3.5 Action 
##  9 Kabhi Kabhie              1976    7.7 Romance
## 10 Electric Horseman, The    1979    5.8 Romance
## # ... with 58 more rows
```
…
#### 1. `specify` variables {-}

Let's now perform all the steps of the `infer` workflow. We first `specify()` the variables of interest in the `movies_sample` data frame using the formula `rating ~ genre`. This tells `infer` that the numerical variable `rating` is the outcome variable while the binary categorical variable `genre` is the explanatory variable. Note than unlike when we were previously interested in proportions, since we are now interested in the mean of a numerical variable, we do not need to set the `success` argument.


```r
movies_sample %>% 
  specify(formula = rating ~ genre)
```

```
## Response: rating (numeric)
## Explanatory: genre (factor)
## # A tibble: 68 x 2
##    rating genre  
##     <dbl> <fct>  
##  1    3.1 Action 
##  2    6.3 Romance
##  3    6.8 Romance
##  4    5   Romance
##  5    4   Action 
##  6    4.9 Romance
##  7    7.4 Romance
##  8    3.5 Action 
##  9    7.7 Romance
## 10    5.8 Romance
## # ... with 58 more rows
```
…
We set the null hypothesis $H_0: \mu_a - \mu_r = 0$ by using the `hypothesize()` function. Since we have two samples, action and romance movies, we set `null = "independence"` as we described in Section \@ref(ht-infer).


```r
movies_sample %>% 
  specify(formula = rating ~ genre) %>% 
  hypothesize(null = "independence")
```

```
## Response: rating (numeric)
## Explanatory: genre (factor)
## Null Hypothesis: independence
## # A tibble: 68 x 2
##    rating genre  
##     <dbl> <fct>  
##  1    3.1 Action 
##  2    6.3 Romance
##  3    6.8 Romance
##  4    5   Romance
##  5    4   Action 
##  6    4.9 Romance
##  7    7.4 Romance
##  8    3.5 Action 
##  9    7.7 Romance
## 10    5.8 Romance
## # ... with 58 more rows
```
…
```r
movies_sample %>% 
  specify(formula = rating ~ genre) %>% 
  hypothesize(null = "independence") %>% 
  generate(reps = 1000, type = "permute")
```


```
## Response: rating (numeric)
## Explanatory: genre (factor)
## Null Hypothesis: independence
## # A tibble: 68,000 x 3
## # Groups:   replicate [1,000]
##    rating genre   replicate
##     <dbl> <fct>       <int>
##  1    7.1 Action          1
##  2    4.8 Romance         1
##  3    4   Romance         1
##  4    7.3 Romance         1
##  5    5.9 Action          1
##  6    5.8 Romance         1
##  7    7.1 Romance         1
##  8    7.4 Action          1
##  9    9.6 Romance         1
## 10    7.1 Romance         1
## # ... with 67,990 more rows
```
…
For each of our 1000 shuffles, we can calculate this test statistic by setting `stat = "diff in means"`. Furthermore, since we are interested in $\overline{x}_{a} - \overline{x}_{r}$, we set `order = c("Action", "Romance")`. Let's save the results in a data frame called `null_distribution_movies`:


```r
null_distribution_movies <- movies_sample %>% 
  specify(formula = rating ~ genre) %>% 
  hypothesize(null = "independence") %>% 
  generate(reps = 1000, type = "permute") %>% 
  calculate(stat = "diff in means", order = c("Action", "Romance"))
null_distribution_movies
```


```
## # A tibble: 1,000 x 2
##    replicate   stat
##        <int>  <dbl>
##  1         1 -0.321
##  2         2 -0.109
##  3         3  0.293
##  4         4  0.104
##  5         5  0.375
##  6         6  0.564
##  7         7 -0.357
##  8         8  0.576
##  9         9  0.493
## 10        10  0.175
## # ... with 990 more rows
```
…
