Chapter 11 Hypothesis Testing | A Minimal Cookbook for your Basic Statistics Needs in R
…
11.1.1 Does gender affect promotions at bank?

Say you are working at a bank in the 1970’s and you are submitting your resume to apply for a promotion. Will your gender affect your chances of getting promoted? To answer this question, we’ll focus on data from a study published in the “Journal of Applied Psychology” in 1974. This data is also used in the OpenIntro series of statistics textbooks.

To begin the study, 48 bank supervisors were asked to assume the role of a hypothetical director of a bank with multiple branches. Every one of the bank supervisors was given a resume and asked whether or not the candidate on the resume was fit to be promoted to a new position in one of their branches.

However, each of these 48 resumes were identical in all respects except one: the name of the applicant at the top of the resume. 24 of the supervisors were randomly given resumes with stereotypically “male” names while 24 of the supervisors were randomly given resumes with stereotypically “female” names. Since only (binary) gender varied from resume to resume, researchers could isolate the effect of this variable in promotion rates.

While many people today (including us, the authors) disagree with such binary views of gender, it is important to remember that this study was conducted at a time where more nuanced views of gender were not as prevalent. Despite this imperfection, we decided to still use this example as we feel it presents ideas still relevant today about how we could study discrimination in the workplace.

The moderndive package contains the data on the 48 applicants in the promotions data frame. Let’s explore this data first:

promotions

## # A tibble: 48 x 3
##       id decision gender
##    <int> <fct>    <fct> 
##  1     1 promoted male  
##  2     2 promoted male  
##  3     3 promoted male  
##  4     4 promoted male  
##  5     5 promoted male  
##  6     6 promoted male  
##  7     7 promoted male  
##  8     8 promoted male  
##  9     9 promoted male  
## 10    10 promoted male  
## # ... with 38 more rows
…
Figure 11.3: Shuffling a deck of cards.

We’ve saved one such shuffling in the promotions_shuffled data frame of the moderndive package. If you view both the original promotions and the shuffled promotions_shuffled data frames and compare them, you’ll see that while the decision variables are identical, the gender variables are different.

promotions_shuffled

## # A tibble: 48 x 3
##       id decision gender
##    <int> <fct>    <fct> 
##  1     1 promoted female
##  2     2 promoted female
##  3     3 promoted male  
##  4     4 promoted female
##  5     5 promoted male  
##  6     6 promoted male  
##  7     7 promoted male  
##  8     8 promoted female
##  9     9 promoted male  
## 10    10 promoted female
## # ... with 38 more rows
…
11.3.1 infer package workflow

1. specify variables

Recall that we use the specify()  verb to specify the response variable and, if needed, any explanatory variables for our study. In this case, since we are interested in any potential effects of gender on promotion decisions, we set decision as the response variable and gender as the explanatory variable. We do so using a formula = response ~ explanatory argument where response is the name of the response variable in the data frame and explanatory is the name of the explanatory variable. So in our case it is decision ~ gender.

Furthermore, since we are interested in the proportion of resumes "promoted", and not the proportion of resumes not promoted, we set the argument success = "promoted".

promotions %>% 
  specify(formula = decision ~ gender, success = "promoted")

## Response: decision (factor)
## Explanatory: gender (factor)
## # A tibble: 48 x 2
##    decision gender
##    <fct>    <fct> 
##  1 promoted male  
##  2 promoted male  
##  3 promoted male  
##  4 promoted male  
##  5 promoted male  
##  6 promoted male  
##  7 promoted male  
##  8 promoted male  
##  9 promoted male  
## 10 promoted male  
## # ... with 38 more rows
…
"point" for hypotheses involving a single sample or

"independence" for hypotheses involving two samples

In our case, since we have two samples (the resumes with “male” and “female” names), we set null = "independence".

promotions %>% 
  specify(formula = decision ~ gender, success = "promoted") %>% 
  hypothesize(null = "independence")

## Response: decision (factor)
## Explanatory: gender (factor)
## Null Hypothesis: independence
## # A tibble: 48 x 2
##    decision gender
##    <fct>    <fct> 
##  1 promoted male  
##  2 promoted male  
##  3 promoted male  
##  4 promoted male  
##  5 promoted male  
##  6 promoted male  
##  7 promoted male  
##  8 promoted male  
##  9 promoted male  
## 10 promoted male  
## # ... with 38 more rows
…
The term “independence” relates to the fact that for two groups of observations, you are testing whether or not the response variable is independent of the explanatory variable that assigns the groups. In our case, we are testing whether the decision response variable is “independent” of the explanatory variable gender that assigns each resume to either of the two groups.

3. generate replicates

After we hypothesize() the null hypothesis, we generate() replicates of “shuffled” datasets assuming the null hypothesis is true. We do this by repeating the shuffling exercise you performed in Section 11.1 several times. Instead of merely doing it 16 times as our groups of friends did, let’s use the computer to repeat this 1000 times by setting reps = 1000 in the generate()  function. However, unlike for confidence intervals where we generated replicates using type = "bootstrap" resampling with replacement, we’ll now perform shuffles/permutations by setting type = "permute". Recall that shuffles/permutations are a kind of resampling, but unlike the bootstrap method, they involve resampling without replacement.

promotions %>% 
  specify(formula = decision ~ gender, success = "promoted") %>% 
  hypothesize(null = "independence") %>% 
  generate(reps = 1000, type = "permute")

## Response: decision (factor)
## Explanatory: gender (factor)
## Null Hypothesis: independence
## # A tibble: 48,000 x 3
## # Groups:   replicate [1,000]
##    decision gender replicate
##    <fct>    <fct>      <int>
##  1 promoted male           1
##  2 promoted male           1
##  3 not      male           1
##  4 promoted male           1
##  5 not      male           1
##  6 not      male           1
##  7 promoted male           1
##  8 promoted male           1
##  9 promoted male           1
## 10 not      male           1
## # ... with 47,990 more rows
…
Now that we have generated 1000 replicates of “shuffles” assuming the null hypothesis is true, let’s calculate()  the appropriate summary statistic for each of our 1000 shuffles. Recall from Section 11.2 that point estimates/summary statistics related to hypothesis testing have a specific name: test statistics. Since the unknown population parameter of interest is the difference in population proportions \(p_{m} - p_{f}\), the test statistic of interest here is the difference in sample proportions \(\widehat{p}_{m} - \widehat{p}_{f}\).

For each of our 1000 shuffles, we can calculate this test statistic by setting stat = "diff in props". Furthermore, since we are interested in \(\widehat{p}_{m} - \widehat{p}_{f}\) we set order = c("male", "female"). As we stated earlier, the order of the subtraction does not matter, so long as you stay consistent throughout your analysis and tailor your interpretations accordingly.

Let’s save the result in a data frame called null_distribution:

null_distribution <- promotions %>% 
  specify(formula = decision ~ gender, success = "promoted") %>% 
  hypothesize(null = "independence") %>% 
  generate(reps = 1000, type = "permute") %>% 
  calculate(stat = "diff in props", order = c("male", "female"))
null_distribution

## # A tibble: 1,000 x 2
##    replicate    stat
##        <int>   <dbl>
##  1         1 -0.125 
##  2         2 -0.0417
##  3         3 -0.0417
##  4         4 -0.0417
##  5         5 -0.0417
##  6         6  0.208 
##  7         7 -0.125 
##  8         8  0.125 
##  9         9 -0.0417
## 10        10  0.208 
## # ... with 990 more rows
…
So what value should you use for \(\alpha\)?  Different fields have different conventions, but some commonly used values include 0.10, 0.05, 0.01, and 0.001. However, it is important to keep in mind that if you use a relatively small value of \(\alpha\) then all things being equal, p-values will have a harder time being less than \(\alpha\). Thus we would reject the null hypothesis less often. In other words, we would reject the null hypothesis \(H_0\) only if we have very strong evidence to do so. This is known as a “conservative” test.

On the other hand, if we used a relatively large value of \(\alpha\) then all things being equal, p-values will have an easier time being less than \(\alpha\). Thus we would reject the null hypothesis more often. In other words, we would reject the null hypothesis \(H_0\) even if we only have mild evidence to do so. This is known as a “liberal” test.

11.5 Case study: Are action or romance movies rated higher?

Let’s apply our knowledge of hypothesis testing to answer the question: “Are action or romance movies rated higher on IMDb?” IMDb is a database on the internet providing information on movie and television show casts, plot summaries, trivia, and ratings. We’ll investigate if, on average, action or romance movies get higher ratings on IMDb.

11.5.1 IMDb ratings data

The movies dataset in the ggplot2movies package contains information on 58,788 movies that have been rated by users of IMDB.com.

movies

## # A tibble: 58,788 x 24
##    title  year length budget rating votes    r1    r2    r3    r4    r5    r6
##    <chr> <int>  <int>  <int>  <dbl> <int> <dbl> <dbl> <dbl> <dbl> <dbl> <dbl>
##  1 $      1971    121     NA    6.4   348   4.5   4.5   4.5   4.5  14.5  24.5
##  2 $100~  1939     71     NA    6      20   0    14.5   4.5  24.5  14.5  14.5
##  3 $21 ~  1941      7     NA    8.2     5   0     0     0     0     0    24.5
##  4 $40,~  1996     70     NA    8.2     6  14.5   0     0     0     0     0  
##  5 $50,~  1975     71     NA    3.4    17  24.5   4.5   0    14.5  14.5   4.5
##  6 $pent  2000     91     NA    4.3    45   4.5   4.5   4.5  14.5  14.5  14.5
##  7 $win~  2002     93     NA    5.3   200   4.5   0     4.5   4.5  24.5  24.5
##  8 '15'   2002     25     NA    6.7    24   4.5   4.5   4.5   4.5   4.5  14.5
##  9 '38    1987     97     NA    6.6    18   4.5   4.5   4.5   0     0     0  
## 10 '49-~  1917     61     NA    6      51   4.5   0     4.5   4.5   4.5  44.5
## # ... with 58,778 more rows, and 12 more variables: r7 <dbl>, r8 <dbl>,
## #   r9 <dbl>, r10 <dbl>, mpaa <chr>, Action <int>, Animation <int>,
## #   Comedy <int>, Drama <int>, Documentary <int>, Romance <int>, Short <int>

We’ll focus on a random sample of 68 movies that are classified as either “action” or “romance” movies but not both. We disregard movies that are classified as both so that we can assign all 68 movies into either category. Furthermore, since the original movies dataset was a little messy, we provide a pre-wrangled version of our data in the movies_sample data frame included in the moderndive package. If you’re curious, you can look at the necessary data wrangling code to do this on GitHub.

movies_sample

## # A tibble: 68 x 4
##    title                     year rating genre  
##    <chr>                    <int>  <dbl> <chr>  
##  1 Underworld                1985    3.1 Action 
##  2 Love Affair               1932    6.3 Romance
##  3 Junglee                   1961    6.8 Romance
##  4 Eversmile, New Jersey     1989    5   Romance
##  5 Search and Destroy        1979    4   Action 
##  6 Secreto de Romelia, El    1988    4.9 Romance
##  7 Amants du Pont-Neuf, Les  1991    7.4 Romance
##  8 Illicit Dreams            1995    3.5 Action 
##  9 Kabhi Kabhie              1976    7.7 Romance
## 10 Electric Horseman, The    1979    5.8 Romance
## # ... with 58 more rows
…
In other words, the null hypothesis \(H_0\) suggests that both romance and action movies have the same mean rating. This is the “hypothesized universe” we’ll assume is true. On the other hand, the alternative hypothesis \(H_A\) suggests that there is a difference. Unlike the one-sided alternative we used in the promotions exercise \(H_a: p_m - p_f > 0\), we are now considering a two-sided alternative of \(H_A: \mu_a - \mu_r \neq 0\).

Furthermore, we’ll pre-specify a relatively high significance level of \(\alpha\) = 0.2. By setting this value high, all things being equal, there is a higher chance that the p-value will be less than \(\alpha\). Thus there is a higher chance that we’ll reject the null hypothesis \(H_0\) in favor of the alternative hypothesis \(H_A\). In other words, we’ll reject the hypothesis that there is no difference in mean ratings for all action and romance movies, even if we only have mild evidence.

1. specify variables

Let’s now perform all the steps of the infer workflow. We first specify() the variables of interest in the movies_sample data frame using the formula rating ~ genre. This tells infer that the numerical variable rating is the outcome variable while the binary categorical variable genre is the explanatory variable. Note than unlike when we were previously interested in proportions, since we are now interested in the mean of a numerical variable, we do not need to set the success argument.

movies_sample %>% 
  specify(formula = rating ~ genre)

## Response: rating (numeric)
## Explanatory: genre (factor)
## # A tibble: 68 x 2
##    rating genre  
##     <dbl> <fct>  
##  1    3.1 Action 
##  2    6.3 Romance
##  3    6.8 Romance
##  4    5   Romance
##  5    4   Action 
##  6    4.9 Romance
##  7    7.4 Romance
##  8    3.5 Action 
##  9    7.7 Romance
## 10    5.8 Romance
## # ... with 58 more rows

Observe at this point that the data in movies_sample has not changed. The only change so far is the newly defined Response: rating (numeric) and Explanatory: genre (factor) meta-data.

2. hypothesize the null

We set the null hypothesis \(H_0: \mu_a - \mu_r = 0\) by using the hypothesize() function. Since we have two samples, action and romance movies, we set null = "independence" as we described in Section 11.3.

movies_sample %>% 
  specify(formula = rating ~ genre) %>% 
  hypothesize(null = "independence")

## Response: rating (numeric)
## Explanatory: genre (factor)
## Null Hypothesis: independence
## # A tibble: 68 x 2
##    rating genre  
##     <dbl> <fct>  
##  1    3.1 Action 
##  2    6.3 Romance
##  3    6.8 Romance
##  4    5   Romance
##  5    4   Action 
##  6    4.9 Romance
##  7    7.4 Romance
##  8    3.5 Action 
##  9    7.7 Romance
## 10    5.8 Romance
## # ... with 58 more rows

3. generate replicates

After we have set the null hypothesis, we generate “shuffled” replicates assuming the null hypothesis is true by repeating the shuffling/permutation exercise you performed in Section 11.1. We’ll repeat this resampling without replacement of type = "permute" a total of reps = 1000 times .

movies_sample %>% 
  specify(formula = rating ~ genre) %>% 
  hypothesize(null = "independence") %>% 
  generate(reps = 1000, type = "permute")

## Response: rating (numeric)
## Explanatory: genre (factor)
## Null Hypothesis: independence
## # A tibble: 68,000 x 3
## # Groups:   replicate [1,000]
##    rating genre   replicate
##     <dbl> <fct>       <int>
##  1    7.1 Action          1
##  2    4.8 Romance         1
##  3    4   Romance         1
##  4    7.3 Romance         1
##  5    5.9 Action          1
##  6    5.8 Romance         1
##  7    7.1 Romance         1
##  8    7.4 Action          1
##  9    9.6 Romance         1
## 10    7.1 Romance         1
## # ... with 67,990 more rows
…
4. calculate summary statistics

Now that we have 1000 replicated “shuffles” assuming the null hypothesis \(H_0\) that both Action and Romance movies on average have the same ratings on IMDb, let’s calculate() the appropriate summary statistic for these 1000 replicated shuffles. Recall from Section 11.2 that point estimates/summary statistics relating to hypothesis testing have a specific name: test statistics. Since the unknown population parameter of interest is the difference in population means \(\mu_{a} - \mu_{r}\), the test statistic of interest here is the difference in sample means \(\overline{x}_{a} - \overline{x}_{r}\).

For each of our 1000 shuffles, we can calculate this test statistic by setting stat = "diff in means". Furthermore, since we are interested in \(\overline{x}_{a} - \overline{x}_{r}\), we set order = c("Action", "Romance"). Let’s save the results in a data frame called null_distribution_movies:

null_distribution_movies <- movies_sample %>% 
  specify(formula = rating ~ genre) %>% 
  hypothesize(null = "independence") %>% 
  generate(reps = 1000, type = "permute") %>% 
  calculate(stat = "diff in means", order = c("Action", "Romance"))
null_distribution_movies

## # A tibble: 1,000 x 2
##    replicate   stat
##        <int>  <dbl>
##  1         1 -0.321
##  2         2 -0.109
##  3         3  0.293
##  4         4  0.104
##  5         5  0.375
##  6         6  0.564
##  7         7 -0.357
##  8         8  0.576
##  9         9  0.493
## 10        10  0.175
## # ... with 990 more rows
…
